229835 290874 443
399173 920655 525
518423 993459 525
42599 570692 470
353974 417023 449
897129 997906 507
593473 798340 509
93176 578547 470
149664 745826 509
306965 676113 509
233885 666088 509
915671 980669 507
727743 895764 525
451525 459277 369
4713 726585 509
357314 371189 410
406513 479392 449
815150 895288 525
707926 713384 411
166391 869398 525
386023 628866 509
417468 450868 418
60784 242468 443
71346 751145 509
749339 898649 525
301886 350807 441
684220 764647 504
727615 970084 525
627788 674780 442
693383 793196 504
552834 714918 509
185506 721293 509
529882 604396 452
801636 887952 525
980822 994286 427
968349 979039 458
718437 928372 525
167412 897751 525
578349 929546 525
261995 617108 470
684411 733655 504
236186 290626 407
698864 961495 525
975539 981375 427
119951 298123 443
330223 712234 509
857333 861875 370
231275 477783 449
716709 962678 525
319371 633709 509
485038 671428 509
646008 976032 525
272468 759063 509
386915 699399 509
697453 934361 525
385363 863869 525
336598 522731 470
311132 898804 525
393198 907339 525
160332 711331 509
521983 755139 509
86252 278434 443
341196 375024 441
620981 962440 525
824267 908016 525
718636 821833 468
625881 777750 509
342685 487026 449
393270 759165 509
685324 967725 525
940445 966129 414
681240 926427 525
622061 825063 509
473472 626599 509
355254 943880 525
76217 633022 509
65617 540457 470
127734 452815 449
166652 538649 470
398937 769207 509
759327 875538 525
546813 796900 509
234409 978863 525
858034 982087 507
285058 925416 525
80587 590762 470
659203 766440 504
288056 781876 509
68600 199473 383
645523 805115 504
655461 659935 429
556822 899795 525
629310 686867 442
527772 849297 525
336973 618059 470
968171 986168 458
544958 890816 525
177911 604026 470
633499 671064 442
21375 886398 525
810328 828473 450
945570 998996 458
254241 986161 525
582720 994171 525
112817 182953 383
650607 952129 525
857834 991086 507
67617 699302 509
783158 979231 525
80738 113727 354
886190 940390 507
149885 606850 470
362090 739158 509
361601 632937 509
47098 838649 525
936332 975309 507
761359 874149 525
447112 539182 470
774579 797993 468
723256 757573 424
798798 894654 525
414956 532177 470
212607 317147 443
279892 525052 470
220803 459856 449
385352 557956 470
913749 993917 507
557450 684363 509
307658 546995 470
549892 843812 525
438054 977861 525
830815 956324 525
242002 612428 470
247611 532841 470
456908 552233 470
536086 642531 509
926774 941658 507
952657 966784 414
940187 996647 458
781452 830410 468
869556 988127 507
439196 610136 470
397209 770375 509
763941 856567 525
566973 672424 509
656504 664787 429
907450 931381 476
80282 584354 470
294049 550413 470
